STARTFONT 2.1
COMMENT $XConsortium: luRS18.bdf,v 1.7 94/04/02 16:00:11 gildea Exp $
COMMENT  (c) Copyright Bigelow & Holmes 1986, 1985. Lucida is a registered
COMMENT  trademark of Bigelow & Holmes. See LEGAL NOTICE file for terms 
COMMENT  of the license. 
COMMENT GRID 0018 0018 0200 0200
FONT -RFX-Serene-Medium-R-Normal-Sans-18-180-75-75-P-106-iso10646-0400
SIZE 18 72 72
FONTBOUNDINGBOX 19 19 -1 -3
STARTPROPERTIES 24
FONTNAME_REGISTRY ""
FOUNDRY "RFX"
FAMILY_NAME "Serene"
WEIGHT_NAME "Medium"
SLANT "R"
SETWIDTH_NAME "Normal"
ADD_STYLE_NAME "Sans"
PIXEL_SIZE 18
POINT_SIZE 180
RESOLUTION_X 75
RESOLUTION_Y 75
SPACING "P"
AVERAGE_WIDTH 106
CHARSET_REGISTRY "iso10646"
CHARSET_ENCODING "0400"
FONT_ASCENT 16
FONT_DESCENT 3
DEFAULT_CHAR 32
COPYRIGHT "Copyright Bigelow & Holmes 1986, 1985."
FACE_NAME "Lucida Sans"
COPYRIGHT2 "Cyrillic glyphs copyright 2000 Dmitry Yu. Bolkhovityanov, bolkhov@inp.nsk.su"
SOURCEDATE "Mon Jul 24 19:35:54 2000"
PKGVERSION "1.1"
ASSEMBLER "cvtbdf.pl (Linux)"
ENDPROPERTIES
CHARS 305
STARTCHAR space
ENCODING 32
SWIDTH 316 0
DWIDTH 5 0
BBX 0 0 0 0
BITMAP
ENDCHAR
STARTCHAR exclam
ENCODING 33
SWIDTH 205 0
DWIDTH 4 0
BBX 2 13 1 0
BITMAP
C0
C0
C0
C0
C0
C0
C0
C0
40
00
00
C0
C0
ENDCHAR
STARTCHAR quotedbl
ENCODING 34
SWIDTH 373 0
DWIDTH 7 0
BBX 5 4 1 10
BITMAP
D8
D8
90
90
ENDCHAR
STARTCHAR numbersign
ENCODING 35
SWIDTH 633 0
DWIDTH 12 0
BBX 11 13 1 0
BITMAP
0CC0
0CC0
0CC0
0880
7FE0
1100
3300
3300
FFC0
2200
6600
6600
6600
ENDCHAR
STARTCHAR dollar
ENCODING 36
SWIDTH 633 0
DWIDTH 12 0
BBX 8 15 3 -1
BITMAP
08
3E
4B
C8
C8
E8
78
3C
1E
17
13
13
D2
7C
10
ENDCHAR
STARTCHAR percent
ENCODING 37
SWIDTH 669 0
DWIDTH 13 0
BBX 11 13 1 0
BITMAP
7000
D840
88C0
8980
8900
DA00
75C0
0B60
1220
3220
6220
4360
01C0
ENDCHAR
STARTCHAR ampersand
ENCODING 38
SWIDTH 697 0
DWIDTH 13 0
BBX 12 13 1 0
BITMAP
3E00
6300
6300
6200
3400
1800
2C60
6660
C340
C180
C1C0
6360
3C30
ENDCHAR
STARTCHAR quotesingle
ENCODING 39
SWIDTH 229 0
DWIDTH 4 0
BBX 2 4 1 10
BITMAP
C0
C0
80
80
ENDCHAR
STARTCHAR parenleft
ENCODING 40
SWIDTH 325 0
DWIDTH 6 0
BBX 4 16 1 -2
BITMAP
10
20
60
40
C0
C0
C0
C0
C0
C0
C0
C0
40
60
20
10
ENDCHAR
STARTCHAR parenright
ENCODING 41
SWIDTH 325 0
DWIDTH 6 0
BBX 4 16 1 -2
BITMAP
80
40
60
20
30
30
30
30
30
30
30
30
20
60
40
80
ENDCHAR
STARTCHAR asterisk
ENCODING 42
SWIDTH 482 0
DWIDTH 9 0
BBX 7 7 1 6
BITMAP
10
10
92
EE
10
6C
44
ENDCHAR
STARTCHAR plus
ENCODING 43
SWIDTH 633 0
DWIDTH 12 0
BBX 9 9 2 1
BITMAP
0800
0800
0800
0800
FF80
0800
0800
0800
0800
ENDCHAR
STARTCHAR comma
ENCODING 44
SWIDTH 316 0
DWIDTH 4 0
BBX 2 4 1 -2
BITMAP
C0
C0
40
80
ENDCHAR
STARTCHAR minus
ENCODING 45
SWIDTH 633 0
DWIDTH 12 0
BBX 9 1 2 5
BITMAP
FF80
ENDCHAR
STARTCHAR period
ENCODING 46
SWIDTH 316 0
DWIDTH 4 0
BBX 2 2 1 0
BITMAP
C0
C0
ENDCHAR
STARTCHAR slash
ENCODING 47
SWIDTH 494 0
DWIDTH 9 0
BBX 7 16 1 -2
BITMAP
02
02
06
04
0C
08
08
18
10
30
20
60
40
C0
80
80
ENDCHAR
STARTCHAR zero
ENCODING 48
SWIDTH 633 0
DWIDTH 12 0
BBX 9 13 2 0
BITMAP
3E00
6300
4100
C180
C180
C180
C180
C180
C180
C180
4100
6300
3E00
ENDCHAR
STARTCHAR one
ENCODING 49
SWIDTH 633 0
DWIDTH 12 0
BBX 5 13 3 0
BITMAP
18
F8
18
18
18
18
18
18
18
18
18
18
18
ENDCHAR
STARTCHAR two
ENCODING 50
SWIDTH 633 0
DWIDTH 12 0
BBX 8 13 2 0
BITMAP
7E
C7
03
03
03
06
0C
18
30
60
C0
FF
FF
ENDCHAR
STARTCHAR three
ENCODING 51
SWIDTH 633 0
DWIDTH 11 0
BBX 8 13 1 0
BITMAP
7E
C7
03
03
06
3C
06
03
03
03
03
C7
7E
ENDCHAR
STARTCHAR four
ENCODING 52
SWIDTH 633 0
DWIDTH 12 0
BBX 11 13 1 0
BITMAP
0180
0380
0780
0D80
0980
1180
3180
6180
C180
FFE0
0180
0180
0180
ENDCHAR
STARTCHAR five
ENCODING 53
SWIDTH 633 0
DWIDTH 12 0
BBX 8 13 3 0
BITMAP
FF
FF
80
80
80
F8
1E
07
03
03
03
C7
7E
ENDCHAR
STARTCHAR six
ENCODING 54
SWIDTH 633 0
DWIDTH 12 0
BBX 9 13 2 0
BITMAP
1E00
7300
6000
C000
C000
DE00
E300
C180
C180
C180
C180
6300
3E00
ENDCHAR
STARTCHAR seven
ENCODING 55
SWIDTH 633 0
DWIDTH 12 0
BBX 9 13 2 0
BITMAP
FF80
FF80
0180
0300
0600
0600
0C00
1800
1800
3000
3000
6000
6000
ENDCHAR
STARTCHAR eight
ENCODING 56
SWIDTH 633 0
DWIDTH 12 0
BBX 9 13 2 0
BITMAP
3E00
6300
C180
C180
E100
7A00
3E00
6700
C380
C180
C180
6300
3E00
ENDCHAR
STARTCHAR nine
ENCODING 57
SWIDTH 633 0
DWIDTH 12 0
BBX 9 13 2 0
BITMAP
3E00
6300
C180
C180
C180
C180
6380
3D80
0180
0100
0300
C600
7C00
ENDCHAR
STARTCHAR colon
ENCODING 58
SWIDTH 316 0
DWIDTH 4 0
BBX 2 10 1 0
BITMAP
C0
C0
00
00
00
00
00
00
C0
C0
ENDCHAR
STARTCHAR semicolon
ENCODING 59
SWIDTH 316 0
DWIDTH 4 0
BBX 2 12 1 -2
BITMAP
C0
C0
00
00
00
00
00
00
C0
C0
40
80
ENDCHAR
STARTCHAR less
ENCODING 60
SWIDTH 633 0
DWIDTH 12 0
BBX 10 9 1 1
BITMAP
00C0
0380
0E00
3800
E000
3800
0E00
0380
00C0
ENDCHAR
STARTCHAR equal
ENCODING 61
SWIDTH 633 0
DWIDTH 12 0
BBX 9 4 2 3
BITMAP
FF80
0000
0000
FF80
ENDCHAR
STARTCHAR greater
ENCODING 62
SWIDTH 633 0
DWIDTH 12 0
BBX 10 9 1 1
BITMAP
C000
7000
1C00
0700
01C0
0700
1C00
7000
C000
ENDCHAR
STARTCHAR question
ENCODING 63
SWIDTH 422 0
DWIDTH 8 0
BBX 7 13 1 0
BITMAP
7C
CE
06
06
0C
30
60
60
60
00
00
60
60
ENDCHAR
STARTCHAR at
ENCODING 64
SWIDTH 858 0
DWIDTH 16 0
BBX 14 13 1 0
BITMAP
07E0
1C38
3008
63EC
4464
C864
98C4
99CC
DAD8
4CF0
6000
3800
0FC0
ENDCHAR
STARTCHAR A
ENCODING 65
SWIDTH 690 0
DWIDTH 13 0
BBX 11 13 1 0
BITMAP
0600
0600
0F00
0B00
1980
1180
3180
20C0
7FC0
60C0
4060
C060
C060
ENDCHAR
STARTCHAR B
ENCODING 66
SWIDTH 575 0
DWIDTH 11 0
BBX 8 13 2 0
BITMAP
FE
C7
C3
C3
C3
C6
FC
C6
C3
C3
C3
C7
FE
ENDCHAR
STARTCHAR C
ENCODING 67
SWIDTH 692 0
DWIDTH 13 0
BBX 11 13 1 0
BITMAP
0FC0
38E0
6000
6000
C000
C000
C000
C000
C000
6000
7000
38E0
0FC0
ENDCHAR
STARTCHAR D
ENCODING 68
SWIDTH 749 0
DWIDTH 14 0
BBX 11 13 2 0
BITMAP
FF00
C1C0
C0C0
C060
C060
C060
C060
C060
C060
C0C0
C0C0
C380
FE00
ENDCHAR
STARTCHAR E
ENCODING 69
SWIDTH 542 0
DWIDTH 10 0
BBX 7 13 2 0
BITMAP
FE
C0
C0
C0
C0
C0
FC
C0
C0
C0
C0
C0
FE
ENDCHAR
STARTCHAR F
ENCODING 70
SWIDTH 536 0
DWIDTH 10 0
BBX 7 13 2 0
BITMAP
FE
C0
C0
C0
C0
C0
FC
C0
C0
C0
C0
C0
C0
ENDCHAR
STARTCHAR G
ENCODING 71
SWIDTH 723 0
DWIDTH 13 0
BBX 11 13 1 0
BITMAP
0FC0
38E0
6000
6000
C000
C000
C000
C060
C060
6060
7060
3860
0FE0
ENDCHAR
STARTCHAR H
ENCODING 72
SWIDTH 735 0
DWIDTH 14 0
BBX 10 13 2 0
BITMAP
C0C0
C0C0
C0C0
C0C0
C0C0
C0C0
FFC0
C0C0
C0C0
C0C0
C0C0
C0C0
C0C0
ENDCHAR
STARTCHAR I
ENCODING 73
SWIDTH 288 0
DWIDTH 6 0
BBX 2 13 2 0
BITMAP
C0
C0
C0
C0
C0
C0
C0
C0
C0
C0
C0
C0
C0
ENDCHAR
STARTCHAR J
ENCODING 74
SWIDTH 311 0
DWIDTH 6 0
BBX 5 15 -1 -2
BITMAP
18
18
18
18
18
18
18
18
18
18
18
18
18
30
E0
ENDCHAR
STARTCHAR K
ENCODING 75
SWIDTH 653 0
DWIDTH 12 0
BBX 10 13 2 0
BITMAP
C180
C300
C600
CC00
D800
F000
F000
D800
CC00
C600
C300
C180
C0C0
ENDCHAR
STARTCHAR L
ENCODING 76
SWIDTH 533 0
DWIDTH 10 0
BBX 7 13 2 0
BITMAP
C0
C0
C0
C0
C0
C0
C0
C0
C0
C0
C0
C0
FE
ENDCHAR
STARTCHAR M
ENCODING 77
SWIDTH 861 0
DWIDTH 16 0
BBX 12 13 2 0
BITMAP
E070
E070
B0B0
B0B0
B0B0
9930
9930
9930
8E30
8E30
8430
8430
8030
ENDCHAR
STARTCHAR N
ENCODING 78
SWIDTH 741 0
DWIDTH 14 0
BBX 10 13 2 0
BITMAP
C040
E040
F040
B040
9840
9C40
8C40
8640
8740
8340
81C0
81C0
80C0
ENDCHAR
STARTCHAR O
ENCODING 79
SWIDTH 777 0
DWIDTH 14 0
BBX 12 13 1 0
BITMAP
0F00
39C0
6060
6060
C030
C030
C030
C030
C030
6060
6060
39C0
0F00
ENDCHAR
STARTCHAR P
ENCODING 80
SWIDTH 553 0
DWIDTH 11 0
BBX 8 13 2 0
BITMAP
FE
C7
C3
C3
C3
C3
C6
F8
C0
C0
C0
C0
C0
ENDCHAR
STARTCHAR Q
ENCODING 81
SWIDTH 777 0
DWIDTH 14 0
BBX 13 16 1 -3
BITMAP
0F00
39C0
6060
6060
C030
C030
C030
C030
C030
6060
6060
39C0
0F00
01C0
0070
0038
ENDCHAR
STARTCHAR R
ENCODING 82
SWIDTH 633 0
DWIDTH 12 0
BBX 9 13 2 0
BITMAP
FE00
C700
C300
C300
C300
C600
F800
CC00
C600
C600
C300
C180
C180
ENDCHAR
STARTCHAR S
ENCODING 83
SWIDTH 539 0
DWIDTH 10 0
BBX 8 13 1 0
BITMAP
3E
67
C0
C0
E0
78
1E
07
03
03
03
E6
7C
ENDCHAR
STARTCHAR T
ENCODING 84
SWIDTH 633 0
DWIDTH 12 0
BBX 12 13 0 0
BITMAP
FFF0
0600
0600
0600
0600
0600
0600
0600
0600
0600
0600
0600
0600
ENDCHAR
STARTCHAR U
ENCODING 85
SWIDTH 693 0
DWIDTH 13 0
BBX 9 13 2 0
BITMAP
C180
C180
C180
C180
C180
C180
C180
C180
C180
C180
6300
7700
1C00
ENDCHAR
STARTCHAR V
ENCODING 86
SWIDTH 654 0
DWIDTH 12 0
BBX 10 13 1 0
BITMAP
C0C0
C0C0
C0C0
6080
6180
6180
3100
3300
3300
1A00
1E00
0C00
0C00
ENDCHAR
STARTCHAR W
ENCODING 87
SWIDTH 855 0
DWIDTH 16 0
BBX 14 13 1 0
BITMAP
C00C
C30C
C30C
C78C
C598
6598
6CD8
68D0
68D0
38F0
3060
3060
3060
ENDCHAR
STARTCHAR X
ENCODING 88
SWIDTH 626 0
DWIDTH 11 0
BBX 9 13 1 0
BITMAP
C180
C180
6180
6300
3200
1C00
1C00
1C00
2600
6300
C300
C180
C180
ENDCHAR
STARTCHAR Y
ENCODING 89
SWIDTH 623 0
DWIDTH 12 0
BBX 10 13 1 0
BITMAP
C0C0
C0C0
6180
3100
3300
1E00
0C00
0C00
0C00
0C00
0C00
0C00
0C00
ENDCHAR
STARTCHAR Z
ENCODING 90
SWIDTH 605 0
DWIDTH 11 0
BBX 9 13 1 0
BITMAP
FF80
FF80
0180
0300
0600
0C00
1C00
1800
3000
6000
C000
FF80
FF80
ENDCHAR
STARTCHAR bracketleft
ENCODING 91
SWIDTH 325 0
DWIDTH 6 0
BBX 4 16 1 -2
BITMAP
F0
C0
C0
C0
C0
C0
C0
C0
C0
C0
C0
C0
C0
C0
C0
F0
ENDCHAR
STARTCHAR backslash
ENCODING 92
SWIDTH 494 0
DWIDTH 9 0
BBX 7 16 1 -2
BITMAP
80
80
C0
40
60
20
30
10
10
18
08
0C
04
06
02
02
ENDCHAR
STARTCHAR bracketright
ENCODING 93
SWIDTH 325 0
DWIDTH 6 0
BBX 4 16 1 -2
BITMAP
F0
30
30
30
30
30
30
30
30
30
30
30
30
30
30
F0
ENDCHAR
STARTCHAR asciicircum
ENCODING 94
SWIDTH 633 0
DWIDTH 12 0
BBX 9 10 2 2
BITMAP
0800
1C00
1400
3600
2200
6300
6300
C180
C180
C180
ENDCHAR
STARTCHAR underscore
ENCODING 95
SWIDTH 500 0
DWIDTH 12 0
BBX 10 1 1 -1
BITMAP
FFC0
ENDCHAR
STARTCHAR grave
ENCODING 96
SWIDTH 614 0
DWIDTH 11 0
BBX 4 2 3 11
BITMAP
E0
30
ENDCHAR
STARTCHAR a
ENCODING 97
SWIDTH 552 0
DWIDTH 10 0
BBX 9 10 1 0
BITMAP
3E00
6700
0300
0300
3F00
6300
C300
C300
E700
7980
ENDCHAR
STARTCHAR b
ENCODING 98
SWIDTH 630 0
DWIDTH 12 0
BBX 9 14 2 0
BITMAP
C000
C000
C000
C000
DC00
E700
C300
C180
C180
C180
C180
C300
E700
DC00
ENDCHAR
STARTCHAR c
ENCODING 99
SWIDTH 518 0
DWIDTH 10 0
BBX 8 10 1 0
BITMAP
1E
73
60
C0
C0
C0
C0
60
73
1E
ENDCHAR
STARTCHAR d
ENCODING 100
SWIDTH 630 0
DWIDTH 12 0
BBX 9 14 1 0
BITMAP
0180
0180
0180
0180
1D80
7380
6180
C180
C180
C180
C180
6180
7380
1D80
ENDCHAR
STARTCHAR e
ENCODING 101
SWIDTH 557 0
DWIDTH 10 0
BBX 8 10 1 0
BITMAP
3C
66
C3
C3
FF
C0
C0
E0
73
3E
ENDCHAR
STARTCHAR f
ENCODING 102
SWIDTH 367 0
DWIDTH 7 0
BBX 6 14 1 0
BITMAP
1C
30
60
60
FC
60
60
60
60
60
60
60
60
60
ENDCHAR
STARTCHAR g
ENCODING 103
SWIDTH 623 0
DWIDTH 12 0
BBX 9 13 1 -3
BITMAP
1D80
7380
6180
C180
C180
C180
C180
6380
3D80
0180
0180
6300
3E00
ENDCHAR
STARTCHAR h
ENCODING 104
SWIDTH 620 0
DWIDTH 12 0
BBX 8 14 2 0
BITMAP
C0
C0
C0
C0
DE
E7
C3
C3
C3
C3
C3
C3
C3
C3
ENDCHAR
STARTCHAR i
ENCODING 105
SWIDTH 289 0
DWIDTH 6 0
BBX 2 14 2 0
BITMAP
C0
C0
00
00
C0
C0
C0
C0
C0
C0
C0
C0
C0
C0
ENDCHAR
STARTCHAR j
ENCODING 106
SWIDTH 304 0
DWIDTH 6 0
BBX 4 17 0 -3
BITMAP
30
30
00
00
30
30
30
30
30
30
30
30
30
30
30
60
C0
ENDCHAR
STARTCHAR k
ENCODING 107
SWIDTH 585 0
DWIDTH 11 0
BBX 9 14 2 0
BITMAP
C000
C000
C000
C000
C300
C600
CC00
D800
F000
D800
CC00
C600
C300
C180
ENDCHAR
STARTCHAR l
ENCODING 108
SWIDTH 289 0
DWIDTH 6 0
BBX 2 14 2 0
BITMAP
C0
C0
C0
C0
C0
C0
C0
C0
C0
C0
C0
C0
C0
C0
ENDCHAR
STARTCHAR m
ENCODING 109
SWIDTH 934 0
DWIDTH 18 0
BBX 14 10 2 0
BITMAP
DE78
E79C
C30C
C30C
C30C
C30C
C30C
C30C
C30C
C30C
ENDCHAR
STARTCHAR n
ENCODING 110
SWIDTH 620 0
DWIDTH 12 0
BBX 8 10 2 0
BITMAP
DE
E7
C3
C3
C3
C3
C3
C3
C3
C3
ENDCHAR
STARTCHAR o
ENCODING 111
SWIDTH 614 0
DWIDTH 11 0
BBX 9 10 1 0
BITMAP
1C00
7700
6300
C180
C180
C180
C180
6300
7700
1C00
ENDCHAR
STARTCHAR p
ENCODING 112
SWIDTH 630 0
DWIDTH 12 0
BBX 9 13 2 -3
BITMAP
DC00
E700
C300
C180
C180
C180
C180
C300
E700
DC00
C000
C000
C000
ENDCHAR
STARTCHAR q
ENCODING 113
SWIDTH 630 0
DWIDTH 12 0
BBX 9 13 1 -3
BITMAP
1D80
7380
6180
C180
C180
C180
C180
6180
7380
1D80
0180
0180
0180
ENDCHAR
STARTCHAR r
ENCODING 114
SWIDTH 409 0
DWIDTH 8 0
BBX 6 10 2 0
BITMAP
CC
DC
E0
C0
C0
C0
C0
C0
C0
C0
ENDCHAR
STARTCHAR s
ENCODING 115
SWIDTH 510 0
DWIDTH 9 0
BBX 7 10 1 0
BITMAP
7C
C6
C0
E0
70
1C
0E
06
C6
7C
ENDCHAR
STARTCHAR t
ENCODING 116
SWIDTH 374 0
DWIDTH 7 0
BBX 5 12 1 0
BITMAP
60
60
F8
60
60
60
60
60
60
60
60
38
ENDCHAR
STARTCHAR u
ENCODING 117
SWIDTH 620 0
DWIDTH 12 0
BBX 8 10 2 0
BITMAP
C3
C3
C3
C3
C3
C3
C3
C3
E7
7B
ENDCHAR
STARTCHAR v
ENCODING 118
SWIDTH 572 0
DWIDTH 10 0
BBX 8 10 1 0
BITMAP
C3
C3
C3
62
66
66
34
34
18
18
ENDCHAR
STARTCHAR w
ENCODING 119
SWIDTH 840 0
DWIDTH 16 0
BBX 14 10 1 0
BITMAP
C00C
C30C
C30C
6318
6598
6590
68D0
38F0
3060
3060
ENDCHAR
STARTCHAR x
ENCODING 120
SWIDTH 613 0
DWIDTH 11 0
BBX 8 10 2 0
BITMAP
C3
C3
66
34
38
1C
2C
66
C3
C3
ENDCHAR
STARTCHAR y
ENCODING 121
SWIDTH 568 0
DWIDTH 10 0
BBX 8 13 1 -3
BITMAP
C3
C3
C3
62
66
66
34
3C
18
18
10
30
30
ENDCHAR
STARTCHAR z
ENCODING 122
SWIDTH 573 0
DWIDTH 10 0
BBX 8 10 1 0
BITMAP
FF
03
07
0E
1C
38
70
E0
C0
FF
ENDCHAR
STARTCHAR braceleft
ENCODING 123
SWIDTH 325 0
DWIDTH 6 0
BBX 4 16 1 -2
BITMAP
70
C0
C0
40
60
20
20
C0
20
20
60
40
C0
C0
C0
70
ENDCHAR
STARTCHAR bar
ENCODING 124
SWIDTH 265 0
DWIDTH 4 0
BBX 2 16 1 -2
BITMAP
C0
C0
C0
C0
C0
C0
C0
C0
C0
C0
C0
C0
C0
C0
C0
C0
ENDCHAR
STARTCHAR braceright
ENCODING 125
SWIDTH 325 0
DWIDTH 6 0
BBX 4 16 1 -2
BITMAP
E0
30
30
20
60
40
40
30
40
40
60
20
30
30
30
E0
ENDCHAR
STARTCHAR asciitilde
ENCODING 126
SWIDTH 633 0
DWIDTH 12 0
BBX 9 3 2 4
BITMAP
7080
9C80
8700
ENDCHAR
STARTCHAR space
ENCODING 160
SWIDTH 316 0
DWIDTH 5 0
BBX 0 0 0 0
BITMAP
ENDCHAR
STARTCHAR exclamdown
ENCODING 161
SWIDTH 205 0
DWIDTH 4 0
BBX 2 13 1 -3
BITMAP
C0
C0
00
00
80
C0
C0
C0
C0
C0
C0
C0
C0
ENDCHAR
STARTCHAR cent
ENCODING 162
SWIDTH 633 0
DWIDTH 12 0
BBX 8 14 3 -1
BITMAP
08
08
1E
6B
68
C8
C8
C8
C8
C8
6B
3E
08
08
ENDCHAR
STARTCHAR sterling
ENCODING 163
SWIDTH 633 0
DWIDTH 12 0
BBX 9 13 2 0
BITMAP
0F00
1180
3000
3000
3000
3000
FC00
3000
3000
2000
4000
FF80
FF80
ENDCHAR
STARTCHAR currency
ENCODING 164
SWIDTH 633 0
DWIDTH 12 0
BBX 11 11 1 1
BITMAP
8020
4040
3F80
3180
60C0
60C0
60C0
3180
3F80
4040
8020
ENDCHAR
STARTCHAR yen
ENCODING 165
SWIDTH 633 0
DWIDTH 12 0
BBX 10 13 1 0
BITMAP
C0C0
C0C0
6180
3100
3300
1A00
0C00
3F00
0C00
3F00
0C00
0C00
0C00
ENDCHAR
STARTCHAR brokenbar
ENCODING 166
SWIDTH 265 0
DWIDTH 4 0
BBX 2 16 1 -2
BITMAP
C0
C0
C0
C0
C0
C0
00
00
00
00
C0
C0
C0
C0
C0
C0
ENDCHAR
STARTCHAR section
ENCODING 167
SWIDTH 633 0
DWIDTH 12 0
BBX 8 15 2 -2
BITMAP
7E
E3
C0
E0
78
5E
C7
C3
E3
7A
1E
07
03
C7
7E
ENDCHAR
STARTCHAR dieresis
ENCODING 168
SWIDTH 614 0
DWIDTH 11 0
BBX 6 2 3 11
BITMAP
CC
CC
ENDCHAR
STARTCHAR copyright
ENCODING 169
SWIDTH 855 0
DWIDTH 16 0
BBX 13 13 2 0
BITMAP
0F80
3060
4010
4390
8408
8C08
8C08
8C08
8608
4390
4010
3060
0F80
ENDCHAR
STARTCHAR ordfeminine
ENCODING 170
SWIDTH 422 0
DWIDTH 8 0
BBX 7 7 1 6
BITMAP
78
CC
0C
7C
CC
CC
76
ENDCHAR
STARTCHAR guillemotleft
ENCODING 171
SWIDTH 524 0
DWIDTH 10 0
BBX 9 8 0 1
BITMAP
1980
3300
6600
CC00
CC00
6600
3300
1980
ENDCHAR
STARTCHAR logicalnot
ENCODING 172
SWIDTH 633 0
DWIDTH 12 0
BBX 9 5 2 1
BITMAP
FF80
0080
0080
0080
0080
ENDCHAR
STARTCHAR hyphen
ENCODING 173
SWIDTH 325 0
DWIDTH 6 0
BBX 4 1 1 5
BITMAP
F0
ENDCHAR
STARTCHAR registered
ENCODING 174
SWIDTH 633 0
DWIDTH 12 0
BBX 8 8 2 5
BITMAP
3C
42
B9
A5
B9
A5
42
3C
ENDCHAR
STARTCHAR macron
ENCODING 175
SWIDTH 614 0
DWIDTH 11 0
BBX 5 2 3 11
BITMAP
F8
F8
ENDCHAR
STARTCHAR degree
ENCODING 176
SWIDTH 277 0
DWIDTH 5 0
BBX 4 4 1 10
BITMAP
60
90
90
60
ENDCHAR
STARTCHAR plusminus
ENCODING 177
SWIDTH 633 0
DWIDTH 12 0
BBX 9 8 2 2
BITMAP
0800
0800
0800
FF80
0800
0800
0000
FF80
ENDCHAR
STARTCHAR twosuperior
ENCODING 178
SWIDTH 422 0
DWIDTH 8 0
BBX 6 7 1 6
BITMAP
78
CC
0C
38
60
C0
FC
ENDCHAR
STARTCHAR threesuperior
ENCODING 179
SWIDTH 422 0
DWIDTH 8 0
BBX 6 7 1 6
BITMAP
78
CC
0C
38
0C
CC
78
ENDCHAR
STARTCHAR acute
ENCODING 180
SWIDTH 614 0
DWIDTH 11 0
BBX 4 2 4 11
BITMAP
70
C0
ENDCHAR
STARTCHAR mu
ENCODING 181
SWIDTH 627 0
DWIDTH 12 0
BBX 8 13 2 -3
BITMAP
C3
C3
C3
C3
C3
C3
C3
C3
E7
FB
C0
C0
C0
ENDCHAR
STARTCHAR paragraph
ENCODING 182
SWIDTH 633 0
DWIDTH 12 0
BBX 8 15 2 -2
BITMAP
7F
F9
F9
F9
79
39
09
09
09
09
09
09
09
09
09
ENDCHAR
STARTCHAR periodcentered
ENCODING 183
SWIDTH 316 0
DWIDTH 12 0
BBX 3 3 5 4
BITMAP
E0
E0
E0
ENDCHAR
STARTCHAR cedilla
ENCODING 184
SWIDTH 614 0
DWIDTH 11 0
BBX 4 3 3 -3
BITMAP
60
30
E0
ENDCHAR
STARTCHAR onesuperior
ENCODING 185
SWIDTH 422 0
DWIDTH 8 0
BBX 4 7 2 6
BITMAP
30
F0
30
30
30
30
30
ENDCHAR
STARTCHAR ordmasculine
ENCODING 186
SWIDTH 422 0
DWIDTH 8 0
BBX 6 7 1 6
BITMAP
78
CC
CC
CC
CC
CC
78
ENDCHAR
STARTCHAR guillemotright
ENCODING 187
SWIDTH 524 0
DWIDTH 10 0
BBX 9 8 1 1
BITMAP
CC00
6600
3300
1980
1980
3300
6600
CC00
ENDCHAR
STARTCHAR onequarter
ENCODING 188
SWIDTH 801 0
DWIDTH 15 0
BBX 13 13 1 0
BITMAP
E030
6060
60C0
6180
6100
6300
6670
0CB0
0930
1B30
33F8
6030
C030
ENDCHAR
STARTCHAR onehalf
ENCODING 189
SWIDTH 801 0
DWIDTH 15 0
BBX 13 13 1 0
BITMAP
E060
60C0
6180
6180
6300
6600
6670
0C98
1818
3030
3040
60F8
C0F8
ENDCHAR
STARTCHAR threequarters
ENCODING 190
SWIDTH 873 0
DWIDTH 16 0
BBX 14 13 1 0
BITMAP
7018
9830
1860
70C0
1880
9980
7338
0658
0498
0D98
19FC
3018
6018
ENDCHAR
STARTCHAR questiondown
ENCODING 191
SWIDTH 422 0
DWIDTH 8 0
BBX 7 13 0 -3
BITMAP
0C
0C
00
00
0C
0C
0C
18
60
C0
C0
E6
7C
ENDCHAR
STARTCHAR Agrave
ENCODING 192
SWIDTH 690 0
DWIDTH 13 0
BBX 11 16 1 0
BITMAP
0E00
0300
0000
0600
0600
0F00
0B00
1980
1180
3180
20C0
7FC0
60C0
4060
C060
C060
ENDCHAR
STARTCHAR Aacute
ENCODING 193
SWIDTH 690 0
DWIDTH 13 0
BBX 11 16 1 0
BITMAP
0700
0C00
0000
0600
0600
0F00
0B00
1980
1180
3180
20C0
7FC0
60C0
4060
C060
C060
ENDCHAR
STARTCHAR Acircumflex
ENCODING 194
SWIDTH 690 0
DWIDTH 13 0
BBX 11 16 1 0
BITMAP
0E00
1B00
0000
0600
0600
0F00
0B00
1980
1180
3180
20C0
7FC0
60C0
4060
C060
C060
ENDCHAR
STARTCHAR Atilde
ENCODING 195
SWIDTH 690 0
DWIDTH 13 0
BBX 11 16 1 0
BITMAP
0E80
1700
0000
0600
0600
0F00
0B00
1980
1180
3180
20C0
7FC0
60C0
4060
C060
C060
ENDCHAR
STARTCHAR Adieresis
ENCODING 196
SWIDTH 690 0
DWIDTH 13 0
BBX 11 16 1 0
BITMAP
1980
1980
0000
0600
0600
0F00
0B00
1980
1180
3180
20C0
7FC0
60C0
4060
C060
C060
ENDCHAR
STARTCHAR Aring
ENCODING 197
SWIDTH 690 0
DWIDTH 13 0
BBX 11 16 1 0
BITMAP
0E00
1300
0E00
0600
0600
0F00
0B00
1980
1180
3180
20C0
7FC0
60C0
4060
C060
C060
ENDCHAR
STARTCHAR AE
ENCODING 198
SWIDTH 907 0
DWIDTH 17 0
BBX 14 13 2 0
BITMAP
03FC
0780
0580
0D80
0980
1980
11F8
3180
3F80
6180
4180
C180
C1FC
ENDCHAR
STARTCHAR Ccedilla
ENCODING 199
SWIDTH 692 0
DWIDTH 13 0
BBX 11 16 1 -3
BITMAP
0FC0
38E0
6000
6000
C000
C000
C000
C000
C000
6000
7000
38E0
0FC0
0C00
0600
1C00
ENDCHAR
STARTCHAR Egrave
ENCODING 200
SWIDTH 542 0
DWIDTH 10 0
BBX 7 16 2 0
BITMAP
70
18
00
FE
C0
C0
C0
C0
C0
FC
C0
C0
C0
C0
C0
FE
ENDCHAR
STARTCHAR Eacute
ENCODING 201
SWIDTH 542 0
DWIDTH 10 0
BBX 7 16 2 0
BITMAP
1C
30
00
FE
C0
C0
C0
C0
C0
FC
C0
C0
C0
C0
C0
FE
ENDCHAR
STARTCHAR Ecircumflex
ENCODING 202
SWIDTH 542 0
DWIDTH 10 0
BBX 7 16 2 0
BITMAP
38
6C
00
FE
C0
C0
C0
C0
C0
FC
C0
C0
C0
C0
C0
FE
ENDCHAR
STARTCHAR Edieresis
ENCODING 203
SWIDTH 542 0
DWIDTH 10 0
BBX 7 16 2 0
BITMAP
66
66
00
FE
C0
C0
C0
C0
C0
FC
C0
C0
C0
C0
C0
FE
ENDCHAR
STARTCHAR Igrave
ENCODING 204
SWIDTH 288 0
DWIDTH 6 0
BBX 4 16 1 0
BITMAP
E0
30
00
60
60
60
60
60
60
60
60
60
60
60
60
60
ENDCHAR
STARTCHAR Iacute
ENCODING 205
SWIDTH 288 0
DWIDTH 6 0
BBX 4 16 1 0
BITMAP
70
C0
00
60
60
60
60
60
60
60
60
60
60
60
60
60
ENDCHAR
STARTCHAR Icircumflex
ENCODING 206
SWIDTH 288 0
DWIDTH 6 0
BBX 5 16 1 0
BITMAP
70
D8
00
60
60
60
60
60
60
60
60
60
60
60
60
60
ENDCHAR
STARTCHAR Idieresis
ENCODING 207
SWIDTH 288 0
DWIDTH 6 0
BBX 6 16 0 0
BITMAP
CC
CC
00
30
30
30
30
30
30
30
30
30
30
30
30
30
ENDCHAR
STARTCHAR Eth
ENCODING 208
SWIDTH 749 0
DWIDTH 14 0
BBX 13 13 0 0
BITMAP
3FC0
3070
3030
3018
3018
3018
FC18
3018
3018
3030
3030
30E0
3F80
ENDCHAR
STARTCHAR Ntilde
ENCODING 209
SWIDTH 741 0
DWIDTH 14 0
BBX 10 16 2 0
BITMAP
1D00
2E00
0000
C040
E040
F040
B040
9840
9C40
8C40
8640
8740
8340
81C0
81C0
80C0
ENDCHAR
STARTCHAR Ograve
ENCODING 210
SWIDTH 777 0
DWIDTH 14 0
BBX 12 16 1 0
BITMAP
0E00
0300
0000
0F00
39C0
6060
6060
C030
C030
C030
C030
C030
6060
6060
39C0
0F00
ENDCHAR
STARTCHAR Oacute
ENCODING 211
SWIDTH 777 0
DWIDTH 14 0
BBX 12 16 1 0
BITMAP
0700
0C00
0000
0F00
39C0
6060
6060
C030
C030
C030
C030
C030
6060
6060
39C0
0F00
ENDCHAR
STARTCHAR Ocircumflex
ENCODING 212
SWIDTH 777 0
DWIDTH 14 0
BBX 12 16 1 0
BITMAP
0700
0D80
0000
0F00
39C0
6060
6060
C030
C030
C030
C030
C030
6060
6060
39C0
0F00
ENDCHAR
STARTCHAR Otilde
ENCODING 213
SWIDTH 777 0
DWIDTH 14 0
BBX 12 16 1 0
BITMAP
0E80
1700
0000
0F00
39C0
6060
6060
C030
C030
C030
C030
C030
6060
6060
39C0
0F00
ENDCHAR
STARTCHAR Odieresis
ENCODING 214
SWIDTH 777 0
DWIDTH 14 0
BBX 12 16 1 0
BITMAP
1980
1980
0000
0F00
39C0
6060
6060
C030
C030
C030
C030
C030
6060
6060
39C0
0F00
ENDCHAR
STARTCHAR multiply
ENCODING 215
SWIDTH 633 0
DWIDTH 12 0
BBX 7 7 3 2
BITMAP
C2
64
38
10
38
4C
86
ENDCHAR
STARTCHAR Oslash
ENCODING 216
SWIDTH 777 0
DWIDTH 14 0
BBX 12 15 1 -1
BITMAP
0020
0F60
39C0
60E0
6160
C130
C230
C230
C430
C830
6860
7060
39C0
6F00
4000
ENDCHAR
STARTCHAR Ugrave
ENCODING 217
SWIDTH 693 0
DWIDTH 13 0
BBX 9 16 2 0
BITMAP
3800
0C00
0000
C180
C180
C180
C180
C180
C180
C180
C180
C180
C180
6300
7700
1C00
ENDCHAR
STARTCHAR Uacute
ENCODING 218
SWIDTH 693 0
DWIDTH 13 0
BBX 9 16 2 0
BITMAP
0E00
1800
0000
C180
C180
C180
C180
C180
C180
C180
C180
C180
C180
6300
7700
1C00
ENDCHAR
STARTCHAR Ucircumflex
ENCODING 219
SWIDTH 693 0
DWIDTH 13 0
BBX 9 16 2 0
BITMAP
1C00
3600
0000
C180
C180
C180
C180
C180
C180
C180
C180
C180
C180
6300
7700
1C00
ENDCHAR
STARTCHAR Udieresis
ENCODING 220
SWIDTH 693 0
DWIDTH 13 0
BBX 9 16 2 0
BITMAP
3300
3300
0000
C180
C180
C180
C180
C180
C180
C180
C180
C180
C180
6300
7700
1C00
ENDCHAR
STARTCHAR Yacute
ENCODING 221
SWIDTH 623 0
DWIDTH 12 0
BBX 10 16 1 0
BITMAP
0700
0C00
0000
C0C0
C0C0
6180
3100
3300
1E00
0C00
0C00
0C00
0C00
0C00
0C00
0C00
ENDCHAR
STARTCHAR Thorn
ENCODING 222
SWIDTH 553 0
DWIDTH 11 0
BBX 8 13 2 0
BITMAP
C0
C0
C0
FE
C7
C3
C3
C3
C6
FC
C0
C0
C0
ENDCHAR
STARTCHAR germandbls
ENCODING 223
SWIDTH 598 0
DWIDTH 11 0
BBX 8 14 2 0
BITMAP
3C
46
C6
C4
C8
D8
DC
CE
C6
C7
C3
C3
C3
CE
ENDCHAR
STARTCHAR agrave
ENCODING 224
SWIDTH 552 0
DWIDTH 10 0
BBX 9 13 1 0
BITMAP
3800
0C00
0000
3E00
6700
0300
0300
3F00
6300
C300
C300
E700
7980
ENDCHAR
STARTCHAR aacute
ENCODING 225
SWIDTH 552 0
DWIDTH 10 0
BBX 9 13 1 0
BITMAP
0E00
1800
0000
3E00
6700
0300
0300
3F00
6300
C300
C300
E700
7980
ENDCHAR
STARTCHAR acircumflex
ENCODING 226
SWIDTH 552 0
DWIDTH 10 0
BBX 9 13 1 0
BITMAP
1C00
3600
0000
3E00
6700
0300
0300
3F00
6300
C300
C300
E700
7980
ENDCHAR
STARTCHAR atilde
ENCODING 227
SWIDTH 552 0
DWIDTH 10 0
BBX 9 13 1 0
BITMAP
1D00
2E00
0000
3E00
6700
0300
0300
3F00
6300
C300
C300
E700
7980
ENDCHAR
STARTCHAR adieresis
ENCODING 228
SWIDTH 552 0
DWIDTH 10 0
BBX 9 13 1 0
BITMAP
6600
6600
0000
3E00
6700
0300
0300
3F00
6300
C300
C300
E700
7980
ENDCHAR
STARTCHAR aring
ENCODING 229
SWIDTH 552 0
DWIDTH 10 0
BBX 9 13 1 0
BITMAP
1C00
2600
1C00
3E00
6700
0300
0300
3F00
6300
C300
C300
E700
7980
ENDCHAR
STARTCHAR ae
ENCODING 230
SWIDTH 853 0
DWIDTH 16 0
BBX 14 10 1 0
BITMAP
3EF0
6798
030C
030C
3FFC
6300
C300
C380
E7CC
78F8
ENDCHAR
STARTCHAR ccedilla
ENCODING 231
SWIDTH 518 0
DWIDTH 10 0
BBX 8 13 1 -3
BITMAP
1E
73
60
C0
C0
C0
C0
60
73
1E
18
0C
38
ENDCHAR
STARTCHAR egrave
ENCODING 232
SWIDTH 557 0
DWIDTH 10 0
BBX 8 13 1 0
BITMAP
38
0C
00
3C
66
C3
C3
FF
C0
C0
E0
73
3E
ENDCHAR
STARTCHAR eacute
ENCODING 233
SWIDTH 557 0
DWIDTH 10 0
BBX 8 13 1 0
BITMAP
0E
18
00
3C
66
C3
C3
FF
C0
C0
E0
73
3E
ENDCHAR
STARTCHAR ecircumflex
ENCODING 234
SWIDTH 557 0
DWIDTH 10 0
BBX 8 13 1 0
BITMAP
1C
36
00
3C
66
C3
C3
FF
C0
C0
E0
73
3E
ENDCHAR
STARTCHAR edieresis
ENCODING 235
SWIDTH 557 0
DWIDTH 10 0
BBX 8 13 1 0
BITMAP
66
66
00
3C
66
C3
C3
FF
C0
C0
E0
73
3E
ENDCHAR
STARTCHAR igrave
ENCODING 236
SWIDTH 289 0
DWIDTH 6 0
BBX 4 13 1 0
BITMAP
E0
30
00
60
60
60
60
60
60
60
60
60
60
ENDCHAR
STARTCHAR iacute
ENCODING 237
SWIDTH 289 0
DWIDTH 6 0
BBX 4 13 2 0
BITMAP
70
C0
00
C0
C0
C0
C0
C0
C0
C0
C0
C0
C0
ENDCHAR
STARTCHAR icircumflex
ENCODING 238
SWIDTH 289 0
DWIDTH 6 0
BBX 5 13 1 0
BITMAP
70
D8
00
60
60
60
60
60
60
60
60
60
60
ENDCHAR
STARTCHAR idieresis
ENCODING 239
SWIDTH 289 0
DWIDTH 6 0
BBX 6 13 0 0
BITMAP
CC
CC
00
30
30
30
30
30
30
30
30
30
30
ENDCHAR
STARTCHAR eth
ENCODING 240
SWIDTH 602 0
DWIDTH 11 0
BBX 10 15 1 0
BITMAP
3800
0DC0
0F00
3B00
0300
1F80
7380
6180
C180
C180
C180
C180
6300
7700
1C00
ENDCHAR
STARTCHAR ntilde
ENCODING 241
SWIDTH 620 0
DWIDTH 12 0
BBX 8 13 2 0
BITMAP
3A
5C
00
DE
E7
C3
C3
C3
C3
C3
C3
C3
C3
ENDCHAR
STARTCHAR ograve
ENCODING 242
SWIDTH 614 0
DWIDTH 11 0
BBX 9 13 1 0
BITMAP
3800
0C00
0000
1C00
7700
6300
C180
C180
C180
C180
6300
7700
1C00
ENDCHAR
STARTCHAR oacute
ENCODING 243
SWIDTH 614 0
DWIDTH 11 0
BBX 9 13 1 0
BITMAP
0E00
1800
0000
1C00
7700
6300
C180
C180
C180
C180
6300
7700
1C00
ENDCHAR
STARTCHAR ocircumflex
ENCODING 244
SWIDTH 614 0
DWIDTH 11 0
BBX 9 13 1 0
BITMAP
1C00
3600
0000
1C00
7700
6300
C180
C180
C180
C180
6300
7700
1C00
ENDCHAR
STARTCHAR otilde
ENCODING 245
SWIDTH 614 0
DWIDTH 11 0
BBX 9 13 1 0
BITMAP
1D00
2E00
0000
1C00
7700
6300
C180
C180
C180
C180
6300
7700
1C00
ENDCHAR
STARTCHAR odieresis
ENCODING 246
SWIDTH 614 0
DWIDTH 11 0
BBX 9 13 1 0
BITMAP
3300
3300
0000
1C00
7700
6300
C180
C180
C180
C180
6300
7700
1C00
ENDCHAR
STARTCHAR divide
ENCODING 247
SWIDTH 633 0
DWIDTH 12 0
BBX 9 9 2 1
BITMAP
0800
0800
0000
0000
FF80
0000
0000
0800
0800
ENDCHAR
STARTCHAR oslash
ENCODING 248
SWIDTH 614 0
DWIDTH 11 0
BBX 9 10 1 0
BITMAP
1C80
7780
6300
C580
C980
C980
D180
6300
F700
9C00
ENDCHAR
STARTCHAR ugrave
ENCODING 249
SWIDTH 620 0
DWIDTH 12 0
BBX 8 13 2 0
BITMAP
38
0C
00
C3
C3
C3
C3
C3
C3
C3
C3
E7
7B
ENDCHAR
STARTCHAR uacute
ENCODING 250
SWIDTH 620 0
DWIDTH 12 0
BBX 8 13 2 0
BITMAP
1C
30
00
C3
C3
C3
C3
C3
C3
C3
C3
E7
7B
ENDCHAR
STARTCHAR ucircumflex
ENCODING 251
SWIDTH 620 0
DWIDTH 12 0
BBX 8 13 2 0
BITMAP
1C
36
00
C3
C3
C3
C3
C3
C3
C3
C3
E7
7B
ENDCHAR
STARTCHAR udieresis
ENCODING 252
SWIDTH 620 0
DWIDTH 12 0
BBX 8 13 2 0
BITMAP
66
66
00
C3
C3
C3
C3
C3
C3
C3
C3
E7
7B
ENDCHAR
STARTCHAR yacute
ENCODING 253
SWIDTH 568 0
DWIDTH 10 0
BBX 8 16 1 -3
BITMAP
0E
18
00
C3
C3
C3
62
66
66
34
3C
18
18
10
30
30
ENDCHAR
STARTCHAR thorn
ENCODING 254
SWIDTH 630 0
DWIDTH 12 0
BBX 9 16 2 -3
BITMAP
C000
C000
C000
DC00
E700
C300
C180
C180
C180
C180
C300
E700
DC00
C000
C000
C000
ENDCHAR
STARTCHAR ydieresis
ENCODING 255
SWIDTH 568 0
DWIDTH 10 0
BBX 8 16 1 -3
BITMAP
66
66
00
C3
C3
C3
62
66
66
34
3C
18
18
10
30
30
ENDCHAR
STARTCHAR uni0400
ENCODING 1024
SWIDTH 542 0
DWIDTH 10 0
BBX 7 16 2 0
BITMAP
70
18
00
FE
C0
C0
C0
C0
C0
FC
C0
C0
C0
C0
C0
FE
ENDCHAR
STARTCHAR afii10023
ENCODING 1025
SWIDTH 542 0
DWIDTH 10 0
BBX 7 16 2 0
BITMAP
66
66
00
FE
C0
C0
C0
C0
C0
FC
C0
C0
C0
C0
C0
FE
ENDCHAR
STARTCHAR afii10051
ENCODING 1026
SWIDTH 833 0
DWIDTH 15 0
BBX 14 13 0 0
BITMAP
FFF0
0600
0600
0600
0600
06F8
071C
060C
060C
060C
060C
061C
0678
ENDCHAR
STARTCHAR afii10052
ENCODING 1027
SWIDTH 555 0
DWIDTH 10 0
BBX 7 16 2 0
BITMAP
1C
30
00
FE
C0
C0
C0
C0
C0
C0
C0
C0
C0
C0
C0
C0
ENDCHAR
STARTCHAR afii10053
ENCODING 1028
SWIDTH 722 0
DWIDTH 13 0
BBX 11 13 1 0
BITMAP
0FC0
38E0
6000
6000
C000
C000
FF00
C000
C000
6000
7000
38E0
0FC0
ENDCHAR
STARTCHAR afii10054
ENCODING 1029
SWIDTH 539 0
DWIDTH 10 0
BBX 8 13 1 0
BITMAP
3E
67
C0
C0
E0
78
1E
07
03
03
03
E6
7C
ENDCHAR
STARTCHAR afii10055
ENCODING 1030
SWIDTH 288 0
DWIDTH 6 0
BBX 2 13 2 0
BITMAP
C0
C0
C0
C0
C0
C0
C0
C0
C0
C0
C0
C0
C0
ENDCHAR
STARTCHAR afii10056
ENCODING 1031
SWIDTH 288 0
DWIDTH 6 0
BBX 6 16 0 0
BITMAP
CC
CC
00
30
30
30
30
30
30
30
30
30
30
30
30
30
ENDCHAR
STARTCHAR afii10057
ENCODING 1032
SWIDTH 311 0
DWIDTH 6 0
BBX 5 15 -1 -2
BITMAP
18
18
18
18
18
18
18
18
18
18
18
18
18
30
E0
ENDCHAR
STARTCHAR afii10058
ENCODING 1033
SWIDTH 1000 0
DWIDTH 18 0
BBX 16 13 1 0
BITMAP
3FC0
30C0
30C0
30C0
30C0
30F8
30C6
30C3
30C3
30C3
60C3
60C7
C0FE
ENDCHAR
STARTCHAR afii10059
ENCODING 1034
SWIDTH 1000 0
DWIDTH 18 0
BBX 15 13 2 0
BITMAP
C180
C180
C180
C180
C180
FFF0
C18C
C186
C186
C186
C186
C18E
C1FC
ENDCHAR
STARTCHAR afii10060
ENCODING 1035
SWIDTH 833 0
DWIDTH 15 0
BBX 14 13 0 0
BITMAP
FFF0
0600
0600
0600
0600
06F8
071C
060C
060C
060C
060C
060C
060C
ENDCHAR
STARTCHAR afii10061
ENCODING 1036
SWIDTH 666 0
DWIDTH 12 0
BBX 10 16 2 0
BITMAP
0E00
1800
0000
C180
C300
C600
CC00
D800
F000
F000
D800
CC00
C600
C300
C180
C0C0
ENDCHAR
STARTCHAR afii10062
ENCODING 1038
SWIDTH 666 0
DWIDTH 12 0
BBX 10 16 1 0
BITMAP
3300
1E00
0000
C0C0
C0C0
6080
6180
3100
3300
1A00
1E00
0C00
0C00
1800
3000
6000
ENDCHAR
STARTCHAR afii10145
ENCODING 1039
SWIDTH 777 0
DWIDTH 14 0
BBX 10 16 2 -3
BITMAP
C0C0
C0C0
C0C0
C0C0
C0C0
C0C0
C0C0
C0C0
C0C0
C0C0
C0C0
C0C0
FFC0
0C00
0C00
0C00
ENDCHAR
STARTCHAR afii10017
ENCODING 1040
SWIDTH 722 0
DWIDTH 13 0
BBX 11 13 1 0
BITMAP
0600
0600
0F00
0B00
1980
1180
3180
20C0
7FC0
60C0
4060
C060
C060
ENDCHAR
STARTCHAR afii10018
ENCODING 1041
SWIDTH 611 0
DWIDTH 11 0
BBX 8 13 2 0
BITMAP
FF
C0
C0
C0
C0
F8
C6
C3
C3
C3
C3
C7
FE
ENDCHAR
STARTCHAR afii10019
ENCODING 1042
SWIDTH 611 0
DWIDTH 11 0
BBX 8 13 2 0
BITMAP
FE
C7
C3
C3
C3
C6
FC
C6
C3
C3
C3
C7
FE
ENDCHAR
STARTCHAR afii10020
ENCODING 1043
SWIDTH 555 0
DWIDTH 10 0
BBX 7 13 2 0
BITMAP
FE
C0
C0
C0
C0
C0
C0
C0
C0
C0
C0
C0
C0
ENDCHAR
STARTCHAR afii10021
ENCODING 1044
SWIDTH 722 0
DWIDTH 13 0
BBX 11 16 1 -3
BITMAP
3FC0
30C0
30C0
30C0
30C0
30C0
30C0
30C0
30C0
60C0
60C0
60C0
FFE0
C060
C060
C060
ENDCHAR
STARTCHAR afii10022
ENCODING 1045
SWIDTH 555 0
DWIDTH 10 0
BBX 7 13 2 0
BITMAP
FE
C0
C0
C0
C0
C0
FC
C0
C0
C0
C0
C0
FE
ENDCHAR
STARTCHAR afii10024
ENCODING 1046
SWIDTH 1000 0
DWIDTH 18 0
BBX 18 13 0 0
BITMAP
60C180
30C300
18C600
0CCC00
06D800
03F000
03F000
06D800
0CCC00
18C600
30C300
60C180
C0C0C0
ENDCHAR
STARTCHAR afii10025
ENCODING 1047
SWIDTH 555 0
DWIDTH 10 0
BBX 8 13 1 0
BITMAP
7E
C7
03
03
03
06
3C
06
03
03
03
C7
7E
ENDCHAR
STARTCHAR afii10026
ENCODING 1048
SWIDTH 777 0
DWIDTH 14 0
BBX 10 13 2 0
BITMAP
80C0
81C0
83C0
8340
8640
8E40
8C40
9840
B840
B040
E040
E040
C040
ENDCHAR
STARTCHAR afii10027
ENCODING 1049
SWIDTH 777 0
DWIDTH 14 0
BBX 10 16 2 0
BITMAP
3300
1E00
0000
80C0
81C0
83C0
8340
8640
8E40
8C40
9840
B840
B040
E040
E040
C040
ENDCHAR
STARTCHAR afii10028
ENCODING 1050
SWIDTH 666 0
DWIDTH 12 0
BBX 10 13 2 0
BITMAP
C180
C300
C600
CC00
D800
F000
F000
D800
CC00
C600
C300
C180
C0C0
ENDCHAR
STARTCHAR afii10029
ENCODING 1051
SWIDTH 722 0
DWIDTH 13 0
BBX 10 13 1 0
BITMAP
3FC0
30C0
30C0
30C0
30C0
30C0
30C0
30C0
30C0
30C0
60C0
60C0
C0C0
ENDCHAR
STARTCHAR afii10030
ENCODING 1052
SWIDTH 888 0
DWIDTH 16 0
BBX 12 13 2 0
BITMAP
E070
E070
B0B0
B0B0
B0B0
9930
9930
9930
8E30
8E30
8430
8430
8030
ENDCHAR
STARTCHAR afii10031
ENCODING 1053
SWIDTH 777 0
DWIDTH 14 0
BBX 10 13 2 0
BITMAP
C0C0
C0C0
C0C0
C0C0
C0C0
C0C0
FFC0
C0C0
C0C0
C0C0
C0C0
C0C0
C0C0
ENDCHAR
STARTCHAR afii10032
ENCODING 1054
SWIDTH 777 0
DWIDTH 14 0
BBX 12 13 1 0
BITMAP
0F00
39C0
6060
6060
C030
C030
C030
C030
C030
6060
6060
39C0
0F00
ENDCHAR
STARTCHAR afii10033
ENCODING 1055
SWIDTH 777 0
DWIDTH 14 0
BBX 10 13 2 0
BITMAP
FFC0
C0C0
C0C0
C0C0
C0C0
C0C0
C0C0
C0C0
C0C0
C0C0
C0C0
C0C0
C0C0
ENDCHAR
STARTCHAR afii10034
ENCODING 1056
SWIDTH 611 0
DWIDTH 11 0
BBX 8 13 2 0
BITMAP
FE
C7
C3
C3
C3
C3
C6
F8
C0
C0
C0
C0
C0
ENDCHAR
STARTCHAR afii10035
ENCODING 1057
SWIDTH 722 0
DWIDTH 13 0
BBX 11 13 1 0
BITMAP
0FC0
38E0
6000
6000
C000
C000
C000
C000
C000
6000
7000
38E0
0FC0
ENDCHAR
STARTCHAR afii10036
ENCODING 1058
SWIDTH 666 0
DWIDTH 12 0
BBX 12 13 0 0
BITMAP
FFF0
0600
0600
0600
0600
0600
0600
0600
0600
0600
0600
0600
0600
ENDCHAR
STARTCHAR afii10037
ENCODING 1059
SWIDTH 666 0
DWIDTH 12 0
BBX 10 13 1 0
BITMAP
C0C0
C0C0
6080
6180
3100
3300
1A00
1E00
0C00
0C00
1800
3000
6000
ENDCHAR
STARTCHAR afii10038
ENCODING 1060
SWIDTH 888 0
DWIDTH 16 0
BBX 14 13 1 0
BITMAP
0300
1FE0
7338
6318
C30C
C30C
C30C
C30C
6318
7338
1FE0
0300
0300
ENDCHAR
STARTCHAR afii10039
ENCODING 1061
SWIDTH 611 0
DWIDTH 11 0
BBX 9 13 1 0
BITMAP
C180
C180
6180
6300
3200
1C00
1C00
1C00
2600
6300
C300
C180
C180
ENDCHAR
STARTCHAR afii10040
ENCODING 1062
SWIDTH 777 0
DWIDTH 14 0
BBX 11 16 2 -3
BITMAP
C0C0
C0C0
C0C0
C0C0
C0C0
C0C0
C0C0
C0C0
C0C0
C0C0
C0C0
C0C0
FFE0
0060
0060
0060
ENDCHAR
STARTCHAR afii10041
ENCODING 1063
SWIDTH 666 0
DWIDTH 12 0
BBX 9 13 1 0
BITMAP
C180
C180
C180
C180
C180
C180
E380
7D80
0180
0180
0180
0180
0180
ENDCHAR
STARTCHAR afii10042
ENCODING 1064
SWIDTH 1000 0
DWIDTH 18 0
BBX 14 13 2 0
BITMAP
C30C
C30C
C30C
C30C
C30C
C30C
C30C
C30C
C30C
C30C
C30C
C30C
FFFC
ENDCHAR
STARTCHAR afii10043
ENCODING 1065
SWIDTH 1000 0
DWIDTH 18 0
BBX 15 16 2 -3
BITMAP
C30C
C30C
C30C
C30C
C30C
C30C
C30C
C30C
C30C
C30C
C30C
C30C
FFFE
0006
0006
0006
ENDCHAR
STARTCHAR afii10044
ENCODING 1066
SWIDTH 611 0
DWIDTH 11 0
BBX 10 13 0 0
BITMAP
F000
3000
3000
3000
3000
3E00
3180
30C0
30C0
30C0
30C0
31C0
3F80
ENDCHAR
STARTCHAR afii10045
ENCODING 1067
SWIDTH 888 0
DWIDTH 16 0
BBX 12 13 2 0
BITMAP
C030
C030
C030
C030
C030
F830
C630
C330
C330
C330
C330
C730
FE30
ENDCHAR
STARTCHAR afii10046
ENCODING 1068
SWIDTH 611 0
DWIDTH 11 0
BBX 8 13 2 0
BITMAP
C0
C0
C0
C0
C0
F8
C6
C3
C3
C3
C3
C7
FE
ENDCHAR
STARTCHAR afii10047
ENCODING 1069
SWIDTH 722 0
DWIDTH 13 0
BBX 11 13 1 0
BITMAP
7E00
E380
00C0
00C0
0060
0060
1FE0
0060
0060
00C0
01C0
E380
7E00
ENDCHAR
STARTCHAR afii10048
ENCODING 1070
SWIDTH 1055 0
DWIDTH 19 0
BBX 16 13 2 0
BITMAP
C0F0
C39C
C606
C606
CC03
CC03
FC03
CC03
CC03
C606
C606
C39C
C0F0
ENDCHAR
STARTCHAR afii10049
ENCODING 1071
SWIDTH 666 0
DWIDTH 12 0
BBX 9 13 1 0
BITMAP
3F80
7180
6180
6180
6180
3180
0F80
1980
3180
3180
6180
C180
C180
ENDCHAR
STARTCHAR afii10065
ENCODING 1072
SWIDTH 555 0
DWIDTH 10 0
BBX 9 10 1 0
BITMAP
3E00
6700
0300
0300
3F00
6300
C300
C300
E700
7980
ENDCHAR
STARTCHAR afii10066
ENCODING 1073
SWIDTH 611 0
DWIDTH 11 0
BBX 9 14 1 0
BITMAP
1F80
7000
6000
C000
DC00
F700
E300
C180
C180
C180
C180
6300
7700
1C00
ENDCHAR
STARTCHAR afii10067
ENCODING 1074
SWIDTH 611 0
DWIDTH 11 0
BBX 8 10 2 0
BITMAP
FE
C7
C3
C6
FC
C6
C3
C3
C7
FE
ENDCHAR
STARTCHAR afii10068
ENCODING 1075
SWIDTH 500 0
DWIDTH 9 0
BBX 7 10 2 0
BITMAP
FE
C0
C0
C0
C0
C0
C0
C0
C0
C0
ENDCHAR
STARTCHAR afii10069
ENCODING 1076
SWIDTH 666 0
DWIDTH 12 0
BBX 10 12 1 -2
BITMAP
3F80
3180
3180
3180
3180
3180
6180
6180
6180
FFC0
C0C0
C0C0
ENDCHAR
STARTCHAR afii10070
ENCODING 1077
SWIDTH 555 0
DWIDTH 10 0
BBX 8 10 1 0
BITMAP
3C
66
C3
C3
FF
C0
C0
E0
73
3E
ENDCHAR
STARTCHAR afii10072
ENCODING 1078
SWIDTH 888 0
DWIDTH 16 0
BBX 16 10 0 0
BITMAP
6186
318C
1998
0DB0
07E0
0DB0
1998
318C
6186
C183
ENDCHAR
STARTCHAR afii10073
ENCODING 1079
SWIDTH 555 0
DWIDTH 10 0
BBX 8 10 1 0
BITMAP
7E
C7
03
06
3C
06
03
03
C7
7E
ENDCHAR
STARTCHAR afii10074
ENCODING 1080
SWIDTH 666 0
DWIDTH 12 0
BBX 8 10 2 0
BITMAP
83
87
8D
8D
99
99
B1
B1
E1
C1
ENDCHAR
STARTCHAR afii10075
ENCODING 1081
SWIDTH 666 0
DWIDTH 12 0
BBX 8 13 2 0
BITMAP
6C
38
00
83
87
8D
8D
99
99
B1
B1
E1
C1
ENDCHAR
STARTCHAR afii10076
ENCODING 1082
SWIDTH 611 0
DWIDTH 11 0
BBX 9 10 2 0
BITMAP
C300
C600
CC00
D800
F000
D800
CC00
C600
C300
C180
ENDCHAR
STARTCHAR afii10077
ENCODING 1083
SWIDTH 666 0
DWIDTH 12 0
BBX 9 10 1 0
BITMAP
3F80
3180
3180
3180
3180
3180
3180
6180
6180
C180
ENDCHAR
STARTCHAR afii10078
ENCODING 1084
SWIDTH 777 0
DWIDTH 14 0
BBX 10 10 2 0
BITMAP
E1C0
E1C0
B2C0
B2C0
B2C0
9CC0
9CC0
88C0
88C0
80C0
ENDCHAR
STARTCHAR afii10079
ENCODING 1085
SWIDTH 666 0
DWIDTH 12 0
BBX 8 10 2 0
BITMAP
C3
C3
C3
C3
FF
C3
C3
C3
C3
C3
ENDCHAR
STARTCHAR afii10080
ENCODING 1086
SWIDTH 611 0
DWIDTH 11 0
BBX 9 10 1 0
BITMAP
1C00
7700
6300
C180
C180
C180
C180
6300
7700
1C00
ENDCHAR
STARTCHAR afii10081
ENCODING 1087
SWIDTH 666 0
DWIDTH 12 0
BBX 8 10 2 0
BITMAP
FF
C3
C3
C3
C3
C3
C3
C3
C3
C3
ENDCHAR
STARTCHAR afii10082
ENCODING 1088
SWIDTH 666 0
DWIDTH 12 0
BBX 9 13 2 -3
BITMAP
DC00
E700
C300
C180
C180
C180
C180
C300
E700
DC00
C000
C000
C000
ENDCHAR
STARTCHAR afii10083
ENCODING 1089
SWIDTH 555 0
DWIDTH 10 0
BBX 8 10 1 0
BITMAP
1E
73
60
C0
C0
C0
C0
60
73
1E
ENDCHAR
STARTCHAR afii10084
ENCODING 1090
SWIDTH 444 0
DWIDTH 8 0
BBX 8 10 0 0
BITMAP
FF
18
18
18
18
18
18
18
18
18
ENDCHAR
STARTCHAR afii10085
ENCODING 1091
SWIDTH 555 0
DWIDTH 10 0
BBX 8 13 1 -3
BITMAP
C3
C3
C3
62
66
66
34
3C
18
18
10
30
30
ENDCHAR
STARTCHAR afii10086
ENCODING 1092
SWIDTH 888 0
DWIDTH 16 0
BBX 14 17 1 -3
BITMAP
0300
0300
0300
0300
1B60
77B8
6318
C30C
C30C
C30C
C30C
6318
77B8
1B60
0300
0300
0300
ENDCHAR
STARTCHAR afii10087
ENCODING 1093
SWIDTH 611 0
DWIDTH 11 0
BBX 8 10 2 0
BITMAP
C3
C3
66
34
38
1C
2C
66
C3
C3
ENDCHAR
STARTCHAR afii10088
ENCODING 1094
SWIDTH 666 0
DWIDTH 12 0
BBX 9 12 2 -2
BITMAP
C300
C300
C300
C300
C300
C300
C300
C300
C300
FF80
0180
0180
ENDCHAR
STARTCHAR afii10089
ENCODING 1095
SWIDTH 611 0
DWIDTH 11 0
BBX 8 10 1 0
BITMAP
C3
C3
C3
C3
C3
E7
7B
03
03
03
ENDCHAR
STARTCHAR afii10090
ENCODING 1096
SWIDTH 1000 0
DWIDTH 18 0
BBX 14 10 2 0
BITMAP
C30C
C30C
C30C
C30C
C30C
C30C
C30C
C30C
C30C
FFFC
ENDCHAR
STARTCHAR afii10091
ENCODING 1097
SWIDTH 1000 0
DWIDTH 18 0
BBX 15 12 2 -2
BITMAP
C30C
C30C
C30C
C30C
C30C
C30C
C30C
C30C
C30C
FFFE
0006
0006
ENDCHAR
STARTCHAR afii10092
ENCODING 1098
SWIDTH 611 0
DWIDTH 11 0
BBX 10 10 0 0
BITMAP
F000
3000
3000
3000
3F00
3180
30C0
30C0
31C0
3F80
ENDCHAR
STARTCHAR afii10093
ENCODING 1099
SWIDTH 888 0
DWIDTH 16 0
BBX 12 10 2 0
BITMAP
C030
C030
C030
C030
FC30
C630
C330
C330
C730
FE30
ENDCHAR
STARTCHAR afii10094
ENCODING 1100
SWIDTH 611 0
DWIDTH 11 0
BBX 8 10 2 0
BITMAP
C0
C0
C0
C0
FC
C6
C3
C3
C7
FE
ENDCHAR
STARTCHAR afii10095
ENCODING 1101
SWIDTH 555 0
DWIDTH 10 0
BBX 8 10 1 0
BITMAP
78
CE
06
03
3F
03
03
06
CE
78
ENDCHAR
STARTCHAR afii10096
ENCODING 1102
SWIDTH 888 0
DWIDTH 16 0
BBX 13 10 2 0
BITMAP
C1C0
C770
C630
CC18
FC18
CC18
CC18
C630
C770
C1C0
ENDCHAR
STARTCHAR afii10097
ENCODING 1103
SWIDTH 666 0
DWIDTH 12 0
BBX 9 10 1 0
BITMAP
3F80
7180
6180
6180
3180
1F80
3180
6180
C180
C180
ENDCHAR
STARTCHAR uni0450
ENCODING 1104
SWIDTH 557 0
DWIDTH 10 0
BBX 8 13 1 0
BITMAP
38
0C
00
3C
66
C3
C3
FF
C0
C0
E0
73
3E
ENDCHAR
STARTCHAR afii10071
ENCODING 1105
SWIDTH 557 0
DWIDTH 10 0
BBX 8 13 1 0
BITMAP
66
66
00
3C
66
C3
C3
FF
C0
C0
E0
73
3E
ENDCHAR
STARTCHAR afii10099
ENCODING 1106
SWIDTH 666 0
DWIDTH 12 0
BBX 9 17 1 -3
BITMAP
6000
6000
FE00
6000
6F00
7380
6180
6180
6180
6180
6180
6180
6180
6180
0180
0300
0E00
ENDCHAR
STARTCHAR afii10100
ENCODING 1107
SWIDTH 500 0
DWIDTH 9 0
BBX 7 13 2 0
BITMAP
1C
30
00
FE
C0
C0
C0
C0
C0
C0
C0
C0
C0
ENDCHAR
STARTCHAR afii10101
ENCODING 1108
SWIDTH 555 0
DWIDTH 10 0
BBX 8 10 1 0
BITMAP
1E
73
60
C0
FC
C0
C0
60
73
1E
ENDCHAR
STARTCHAR afii10102
ENCODING 1109
SWIDTH 510 0
DWIDTH 9 0
BBX 7 10 1 0
BITMAP
7C
C6
C0
E0
70
1C
0E
06
C6
7C
ENDCHAR
STARTCHAR afii10103
ENCODING 1110
SWIDTH 289 0
DWIDTH 6 0
BBX 2 14 2 0
BITMAP
C0
C0
00
00
C0
C0
C0
C0
C0
C0
C0
C0
C0
C0
ENDCHAR
STARTCHAR afii10104
ENCODING 1111
SWIDTH 289 0
DWIDTH 6 0
BBX 6 13 0 0
BITMAP
CC
CC
00
30
30
30
30
30
30
30
30
30
30
ENDCHAR
STARTCHAR afii10105
ENCODING 1112
SWIDTH 304 0
DWIDTH 6 0
BBX 4 17 0 -3
BITMAP
30
30
00
00
30
30
30
30
30
30
30
30
30
30
30
60
C0
ENDCHAR
STARTCHAR afii10106
ENCODING 1113
SWIDTH 944 0
DWIDTH 17 0
BBX 15 10 1 0
BITMAP
3F80
3180
3180
3180
31F8
318C
3186
6186
618E
C1FC
ENDCHAR
STARTCHAR afii10107
ENCODING 1114
SWIDTH 944 0
DWIDTH 17 0
BBX 14 10 2 0
BITMAP
C300
C300
C300
C300
FFF0
C318
C30C
C30C
C31C
C3F8
ENDCHAR
STARTCHAR afii10108
ENCODING 1115
SWIDTH 666 0
DWIDTH 12 0
BBX 9 14 1 0
BITMAP
6000
6000
FE00
6000
6F00
7380
6180
6180
6180
6180
6180
6180
6180
6180
ENDCHAR
STARTCHAR afii10109
ENCODING 1116
SWIDTH 611 0
DWIDTH 11 0
BBX 9 13 2 0
BITMAP
0E00
1800
0000
C300
C600
CC00
D800
F000
D800
CC00
C600
C300
C180
ENDCHAR
STARTCHAR afii10110
ENCODING 1118
SWIDTH 555 0
DWIDTH 10 0
BBX 8 16 1 -3
BITMAP
66
3C
00
C3
C3
C3
62
66
66
34
3C
18
18
10
30
30
ENDCHAR
STARTCHAR afii10193
ENCODING 1119
SWIDTH 666 0
DWIDTH 12 0
BBX 8 12 2 -2
BITMAP
C3
C3
C3
C3
C3
C3
C3
C3
C3
FF
18
18
ENDCHAR
STARTCHAR afii10146
ENCODING 1122
SWIDTH 611 0
DWIDTH 11 0
BBX 10 13 0 0
BITMAP
3000
3000
FC00
3000
3000
3E00
3180
30C0
30C0
30C0
30C0
31C0
3F80
ENDCHAR
STARTCHAR afii10194
ENCODING 1123
SWIDTH 611 0
DWIDTH 11 0
BBX 10 14 0 0
BITMAP
3000
3000
3000
3000
FC00
3000
3000
3000
3F00
3180
30C0
30C0
31C0
3F80
ENDCHAR
STARTCHAR afii10147
ENCODING 1138
SWIDTH 777 0
DWIDTH 14 0
BBX 12 13 1 0
BITMAP
0F00
39C0
6060
6060
C030
C030
FFF0
C030
C030
6060
6060
39C0
0F00
ENDCHAR
STARTCHAR afii10195
ENCODING 1139
SWIDTH 611 0
DWIDTH 11 0
BBX 9 10 1 0
BITMAP
1C00
7700
6300
C180
FF80
C180
C180
6300
7700
1C00
ENDCHAR
STARTCHAR afii10148
ENCODING 1140
SWIDTH 666 0
DWIDTH 12 0
BBX 10 13 1 0
BITMAP
C0C0
C0C0
C180
6180
6100
6300
3300
3200
3200
1A00
1E00
0C00
0C00
ENDCHAR
STARTCHAR afii10196
ENCODING 1141
SWIDTH 555 0
DWIDTH 10 0
BBX 8 10 1 0
BITMAP
C3
C3
C2
66
64
64
34
38
18
18
ENDCHAR
STARTCHAR afii10050
ENCODING 1168
SWIDTH 555 0
DWIDTH 10 0
BBX 7 16 2 0
BITMAP
06
06
06
FE
C0
C0
C0
C0
C0
C0
C0
C0
C0
C0
C0
C0
ENDCHAR
STARTCHAR afii10098
ENCODING 1169
SWIDTH 500 0
DWIDTH 9 0
BBX 7 12 2 0
BITMAP
06
06
FE
C0
C0
C0
C0
C0
C0
C0
C0
C0
ENDCHAR
STARTCHAR uni04AA
ENCODING 1194
SWIDTH 692 0
DWIDTH 13 0
BBX 11 16 1 -3
BITMAP
0FC0
38E0
6000
6000
C000
C000
C000
C000
C000
6000
7000
38E0
0FC0
0C00
0600
1C00
ENDCHAR
STARTCHAR uni04AB
ENCODING 1195
SWIDTH 518 0
DWIDTH 10 0
BBX 8 13 1 -3
BITMAP
1E
73
60
C0
C0
C0
C0
60
73
1E
18
0C
38
ENDCHAR
STARTCHAR uni04AE
ENCODING 1198
SWIDTH 623 0
DWIDTH 12 0
BBX 10 13 1 0
BITMAP
C0C0
C0C0
6180
3100
3300
1E00
0C00
0C00
0C00
0C00
0C00
0C00
0C00
ENDCHAR
STARTCHAR uni04C0
ENCODING 1216
SWIDTH 288 0
DWIDTH 6 0
BBX 2 13 2 0
BITMAP
C0
C0
C0
C0
C0
C0
C0
C0
C0
C0
C0
C0
C0
ENDCHAR
STARTCHAR uni04D2
ENCODING 1234
SWIDTH 690 0
DWIDTH 13 0
BBX 11 16 1 0
BITMAP
1980
1980
0000
0600
0600
0F00
0B00
1980
1180
3180
20C0
7FC0
60C0
4060
C060
C060
ENDCHAR
STARTCHAR uni04D3
ENCODING 1235
SWIDTH 552 0
DWIDTH 10 0
BBX 9 13 1 0
BITMAP
6600
6600
0000
3E00
6700
0300
0300
3F00
6300
C300
C300
E700
7980
ENDCHAR
STARTCHAR uni04D4
ENCODING 1236
SWIDTH 907 0
DWIDTH 17 0
BBX 14 13 2 0
BITMAP
03FC
0780
0580
0D80
0980
1980
11F8
3180
3F80
6180
4180
C180
C1FC
ENDCHAR
STARTCHAR uni04D5
ENCODING 1237
SWIDTH 853 0
DWIDTH 16 0
BBX 14 10 1 0
BITMAP
3EF0
6798
030C
030C
3FFC
6300
C300
C380
E7CC
78F8
ENDCHAR
STARTCHAR uni04E6
ENCODING 1254
SWIDTH 777 0
DWIDTH 14 0
BBX 12 16 1 0
BITMAP
1980
1980
0000
0F00
39C0
6060
6060
C030
C030
C030
C030
C030
6060
6060
39C0
0F00
ENDCHAR
STARTCHAR uni04E7
ENCODING 1255
SWIDTH 614 0
DWIDTH 11 0
BBX 9 13 1 0
BITMAP
3300
3300
0000
1C00
7700
6300
C180
C180
C180
C180
6300
7700
1C00
ENDCHAR
STARTCHAR uni04E8
ENCODING 1256
SWIDTH 777 0
DWIDTH 14 0
BBX 12 13 1 0
BITMAP
0F00
39C0
6060
6060
C030
C030
FFF0
C030
C030
6060
6060
39C0
0F00
ENDCHAR
STARTCHAR uni04E9
ENCODING 1257
SWIDTH 611 0
DWIDTH 11 0
BBX 9 10 1 0
BITMAP
1C00
7700
6300
C180
FF80
C180
C180
6300
7700
1C00
ENDCHAR
ENDFONT
